{
  "info" : {
    "author" : "Jan Heller <jan@magik-eye.com>",
    "description" : "Camera calibration, ElMarkChessboardTarget"
  },
  "macros" : {
    "DATA_PATH" : "DATA_PATH is a mandatory template parameter, please set",
    "TARGET_UNIT" : 29.63,
    "STORE_DBG_DATA" : true,
    "CAMERA_MODEL_TYPE" : "OPENCV_MODEL",
    "CAMERA_MODEL_OPT" : [true, true, true, true, true, true, true, true]
  },
  "definitions": {
    "camera_target_type": "ElMarkChessboardTarget",
    "camera_target_parameters": {      
      "x_mm": { "$ref" : "#/macros/TARGET_UNIT" },
      "y_mm": { "$ref" : "#/macros/TARGET_UNIT" }
    }
  },
  "scenario" : {
    "parameters" : {
      "store_dbg_data" : { "$ref" : "#/macros/STORE_DBG_DATA" }
    },
    "description" : [
      {
      "id": "ccalib",
      "parameters": {
        "camera_model_opt": { "$ref" : "#/macros/CAMERA_MODEL_OPT" },
        "camera_model_type": { "$ref" : "#/macros/CAMERA_MODEL_TYPE" },
        "target_parameters": { "$ref" : "#/definitions/camera_target_parameters" },
        "target_type": { "$ref" : "#/definitions/camera_target_type" }
      },
      "required": [],
      "type": "CameraCalibration"
      }
    ]
  },
  "image_list" : [
    {
      "dataset" : "ccalib",
      "directory" : {
        "path" : "${DATA_PATH}",
        "mask" : ".*",
        "order" : "lex"
      }
    }  
  ]
}
