{
  "info" : {
    "author" : "Jan Heller <jan@magik-eye.com>, 2020",
    "description" : "FishEye 4-laser sensor, using MkE directory structure"
  },
  "macros" : {
    "DATA_PATH" : "DATA_PATH is a mandatory template parameter, please set",
    "SERIAL_NUMBER" : "P000R00S000",
    "MKEDET_PATH" : "${DATA_PATH}",
    "MKEDET_NAME" : "mkedet_${SERIAL_NUMBER}.bin",
    "TARGETS_JSON" : "targets.json",
    "CAMERA_TARGET_NAME" : "Einstein",
    "LASER_TARGET_NAME" : "Newton",
    "LASER_TARGET_GAMMA" : 0.8,
    "LASER_DOTS_SIGMA" : 2,
    "LASER_DOTS_MIN_THRESHOLD" : 120,
    "FRAME_CORRECTION_METHOD" : "NO_CORRECTION",
    "MIN_DEPTH" : 150,
    "MAX_DEPTH" : 5000,
    "PATH_SAMPLING_GAMMA" : 1,
    "AVG_PATH_SAMPLING_STEP" : 0.3,
    "DATA3D_TYPE" : "DD_DATA3D_MM4",
    "SENSOR_STRIDE" : 1664,
    "STORE_DBG_DATA" : true
  },
  "definitions": {
    "camera_model_type": "E7P_FISHEYE_MODEL",
    "camera_model_opt": [true, false, true, true, true, true, true, true],
    "camera_target_type": { "$ref" : "${TARGETS_JSON}#/${CAMERA_TARGET_NAME}/type" },
    "camera_target_parameters": {      
      "x_mm": { "$ref" : "${TARGETS_JSON}#/${CAMERA_TARGET_NAME}/x_unit" },
      "y_mm": { "$ref" : "${TARGETS_JSON}#/${CAMERA_TARGET_NAME}/y_unit" }
    },
    "laser_target_type": { "$ref" : "${TARGETS_JSON}#/${LASER_TARGET_NAME}/type" },
    "laser_target_parameters": {
      "elldet_parameters": {
        "gamma": { "$ref" : "#/macros/LASER_TARGET_GAMMA" }
      },
      "height": { "$ref" : "${TARGETS_JSON}#/${LASER_TARGET_NAME}/height" },
      "width": { "$ref" : "${TARGETS_JSON}#/${LASER_TARGET_NAME}/width" },
      "x_mm": { "$ref" : "${TARGETS_JSON}#/${LASER_TARGET_NAME}/x_unit" },
      "y_mm": { "$ref" : "${TARGETS_JSON}#/${LASER_TARGET_NAME}/y_unit" }
    },
    "trgpts_dotdet_parameters": {
       "min_join_distance": 10,
       "min_threshold": { "$ref" : "#/macros/LASER_DOTS_MIN_THRESHOLD" },
       "sigma": { "$ref" : "#/macros/LASER_DOTS_SIGMA" }
    },
    "uncdoe_parameters": {
      "loss_length_scale": 5,
      "min_pts_per_ray": 5,
      "num_iters": 500,
      "num_rays": 3,
      "rays_threshold": 0.0872
    },
    "raytopo_parameters": {
    },
    "framecorr_parameters": {
      "correction_method" : { "$ref" : "#/macros/FRAME_CORRECTION_METHOD" },
      "node_ids" : ["pattern1_raytopo", "pattern2_raytopo", "pattern4_raytopo", "pattern8_raytopo"]
    },    
    "ray_sampler_parameters": {
      "path_sampling_gamma" : { "$ref" : "#/macros/PATH_SAMPLING_GAMMA" },
      "avg_path_sampling_step": { "$ref" : "#/macros/AVG_PATH_SAMPLING_STEP" },
      "far_shoulder_length": 1,
      "max_depth": { "$ref" : "#/macros/MAX_DEPTH" },
      "min_depth": { "$ref" : "#/macros/MIN_DEPTH" },
      "near_shoulder_length": 5,
      "path_collision_dist": 0,
      "build_pxlists": false
    },
    "mkedet_parameters": {
      "file_version": "MKEDET02",
      "dd_section_type": "DD_SECTION_NCOLLUT",
      "ip_section_type": "IP_SECTION_INTRAYS",
      "pp_section_type": "PP_SECTION_EMPTY",
      "rr_section_type": "RR_SECTION_CAMERA",
      "file_name": "${MKEDET_NAME}",
      "file_path": "${MKEDET_PATH}",
      "data3d_type" : { "$ref" : "#/macros/DATA3D_TYPE" },
      "info_data": {
        "hostname": "${HOSTNAME_}",
        "serial_number": "${SERIAL_NUMBER}",
        "timestamp": "${TIMESTAMP_}",
        "system": "${SYSTEM_}",
        "username": "${USERNAME_}",
        "mkecc_version" : "${MKECC_VERSION_}"
      },
      "laser_pattern": [[2, 8], [1, 4]],
      "stride": { "$ref" : "#/macros/SENSOR_STRIDE" }
    }
  },
  "scenario" : {
    "parameters" : {
      "store_dbg_data" : { "$ref" : "#/macros/STORE_DBG_DATA" }
    },
    "description" : [
    {
      "id": "ccalib",
      "parameters": {
        "camera_model_opt": { "$ref": "#/definitions/camera_model_opt" },
        "camera_model_type": { "$ref": "#/definitions/camera_model_type" },
        "target_parameters": { "$ref": "#/definitions/camera_target_parameters" },
        "target_type": { "$ref": "#/definitions/camera_target_type" }
      },
      "required": [],
      "type": "CameraCalibration"
    },
    {
      "id": "pattern1_trgpts",
      "parameters": {
        "dotdet_parameters": { "$ref": "#/definitions/trgpts_dotdet_parameters" },
        "target_parameters": { "$ref": "#/definitions/laser_target_parameters" },
        "target_type": { "$ref": "#/definitions/laser_target_type" }
      },
      "required": [ "ccalib" ],
      "type": "TargetPoints"
    },
    {
      "id": "pattern1_uncdoe",
      "parameters": { "$ref": "#/definitions/uncdoe_parameters" },
      "required": [ "pattern1_trgpts" ],
      "type": "UnconstrainedDoeCalib"
    },
    {
      "id": "pattern1_raytopo",
      "parameters": { "$ref": "#/definitions/raytopo_parameters" },
      "required": [ "pattern1_uncdoe" ],
      "type": "RayTopology"
    },     
    {
      "id": "pattern2_trgpts",
      "parameters": {
        "dotdet_parameters": { "$ref": "#/definitions/trgpts_dotdet_parameters" },
        "target_parameters": { "$ref": "#/definitions/laser_target_parameters" },
        "target_type": { "$ref": "#/definitions/laser_target_type" }
      },
      "required": [ "ccalib" ],
      "type": "TargetPoints"
    },
    {
      "id": "pattern2_uncdoe",
      "parameters": { "$ref": "#/definitions/uncdoe_parameters" },
      "required": [ "pattern2_trgpts" ],
      "type": "UnconstrainedDoeCalib"
    },
    {
      "id": "pattern2_raytopo",
      "parameters": { "$ref": "#/definitions/raytopo_parameters" },
      "required": [ "pattern2_uncdoe" ],
      "type": "RayTopology"
    },     
    {
      "id": "pattern4_trgpts",
      "parameters": {
        "dotdet_parameters": { "$ref": "#/definitions/trgpts_dotdet_parameters" },
        "target_parameters": { "$ref": "#/definitions/laser_target_parameters" },
        "target_type": { "$ref": "#/definitions/laser_target_type" }
      },
      "required": [ "ccalib" ],
      "type": "TargetPoints"
    },
    {
      "id": "pattern4_uncdoe",
      "parameters": { "$ref": "#/definitions/uncdoe_parameters" },
      "required": [ "pattern4_trgpts" ],
      "type": "UnconstrainedDoeCalib"
    },
    {
      "id": "pattern4_raytopo",
      "parameters": { "$ref": "#/definitions/raytopo_parameters" },
      "required": [ "pattern4_uncdoe" ],
      "type": "RayTopology"
    },     
    {
      "id": "pattern8_trgpts",
      "parameters": {
        "dotdet_parameters": { "$ref": "#/definitions/trgpts_dotdet_parameters" },
        "target_parameters": { "$ref": "#/definitions/laser_target_parameters" },
        "target_type": { "$ref": "#/definitions/laser_target_type" }
      },
      "required": [ "ccalib" ],
      "type": "TargetPoints"
    },
    {
      "id": "pattern8_uncdoe",
      "parameters": { "$ref": "#/definitions/uncdoe_parameters" },
      "required": [ "pattern8_trgpts" ],
      "type": "UnconstrainedDoeCalib"
    },
    {
      "id": "pattern8_raytopo",
      "parameters": { "$ref": "#/definitions/raytopo_parameters" },
      "required": [ "pattern8_uncdoe" ],
      "type": "RayTopology"
    },
    {
      "id": "framecorr",
      "parameters": { "$ref": "#/definitions/framecorr_parameters" },
      "required": [ "pattern1_raytopo", "pattern2_raytopo", "pattern4_raytopo", "pattern8_raytopo"],
      "type": "FrameCorrection"
    },
    {
      "id": "merge_doe",
      "parameters": {
        "ray_groups": [
          [    
            {  
              "node_id": "pattern2_raytopo",  
              "group_idx": 0,  
              "doe_idx": 0  
            },  
            {  
              "node_id": "pattern8_raytopo",  
              "group_idx": 0,  
              "doe_idx": 0  
            }  
          ],  
          [  
            {  
              "node_id": "pattern1_raytopo",  
              "group_idx": 0,  
              "doe_idx": 0  
            },  
            {  
              "node_id": "pattern4_raytopo",  
              "group_idx": 0,  
              "doe_idx": 0  
            }  
          ]  
        ]  
      },
      "required": [ "pattern1_raytopo", "pattern2_raytopo", "pattern4_raytopo", "pattern8_raytopo"],
      "type": "DoeGroupsMerge"
    },
    {
      "id": "ray_sampler",
      "parameters": { "$ref": "#/definitions/ray_sampler_parameters" },
      "required": [ "merge_doe", "framecorr" ],
      "type": "RaySampler"
    },
    {
      "id": "mkedet",
      "parameters": { "$ref": "#/definitions/mkedet_parameters" },
      "required": [ "ray_sampler" ],
      "type": "MkedetExporter"
    }
  ]
  },
  "image_list" : [
    {
      "dataset" : "ccalib",
      "directory" : {
        "path" : "${DATA_PATH}/ccalib",
        "mask" : ".*",
        "order" : "lex"
      }
    },
    {
      "dataset" : "pattern1_trgpts_targets",
      "directory" : {
        "path" : "${DATA_PATH}/pattern1/target",
        "mask" : ".*",
        "order" : "lex"
      }
    },
    {
      "dataset" : "pattern1_trgpts_dots",
      "directory" : {
        "path" : "${DATA_PATH}/pattern1/laser",
        "mask" : ".*",
        "order" : "lex"
      }
    },
    {
      "dataset" : "pattern2_trgpts_targets",
      "directory" : {
        "path" : "${DATA_PATH}/pattern2/target",
        "mask" : ".*",
        "order" : "lex"
      }
    },
    {
      "dataset" : "pattern2_trgpts_dots",
      "directory" : {
        "path" : "${DATA_PATH}/pattern2/laser",
        "mask" : ".*",
        "order" : "lex"
      }
    },
    {
      "dataset" : "pattern4_trgpts_targets",
      "directory" : {
        "path" : "${DATA_PATH}/pattern4/target",
        "mask" : ".*",
        "order" : "lex"
      }
    },
    {
      "dataset" : "pattern4_trgpts_dots",
      "directory" : {
        "path" : "${DATA_PATH}/pattern4/laser",
        "mask" : ".*",
        "order" : "lex"
      }
    },
    {
      "dataset" : "pattern8_trgpts_targets",
      "directory" : {
        "path" : "${DATA_PATH}/pattern8/target",
        "mask" : ".*",
        "order" : "lex"
      }
    },
    {
      "dataset" : "pattern8_trgpts_dots",
      "directory" : {
        "path" : "${DATA_PATH}/pattern8/laser",
        "mask" : ".*",
        "order" : "lex"
      }
    }    
  ]
}
