{
  "info": {
    "author": "Jan Heller <jan@magik-eye.com>, 2019",
    "description": "Slider calibration"
  },
  "macros": {
    "DATA_PATH": "DATA_PATH is a mandatory template parameter, please set",
    "TARGET_NAME": "Einstein",
    "TARGETS_JSON": "targets.json",
    "STORE_DBG_DATA": true
  },
  "definitions": {
    "target_type": {
      "$ref": "${TARGETS_JSON}#/${TARGET_NAME}/type"
    },
    "target_parameters": {
      "x_mm": {
        "$ref": "${TARGETS_JSON}#/${TARGET_NAME}/x_unit"
      },
      "y_mm": {
        "$ref": "${TARGETS_JSON}#/${TARGET_NAME}/y_unit"
      }
    }
  },
  "scenario": {
    "parameters": {
      "store_dbg_data": {
        "$ref": "#/macros/STORE_DBG_DATA"
      }
    },
    "description": [
      {
        "id": "extdata",
        "parameters": {
          "extdata": {
            "camera_model": {
              "$ref": "#/macros/CAMERA_MODEL"
            }
          }
        },
        "required": [],
        "type": "ExternalData"
      },
      {
        "id": "camposes",
        "parameters": {
          "target_parameters": {
            "$ref": "#/definitions/target_parameters"
          },
          "target_type": {
            "$ref": "#/definitions/target_type"
          }
        },
        "required": [
          "extdata"
        ],
        "type": "CameraPose"
      },
      {
        "id": "slidercalib",
        "parameters": {
          "slider_values": {
            "$ref": "#/macros/SLIDER_VALUES"
          }
        },
        "required": [
          "camposes"
        ],
        "type": "SliderCalibration"
      }
    ]
  },
  "image_list": [
    {
      "dataset": "camposes",
      "images": {
        "$ref": "#/macros/IMAGE_LIST"
      }
    }
  ]
}
