{
  "Einstein" : {
    "type" : "ElMarkChessboardTarget",
    "unit" : 29.63,
    "x_unit" : 29.63,
    "y_unit" : 29.63
  },
  "EinsteinX" : {
    "type" : "ChessboardTarget",
    "unit" : 29.63,
    "x_unit" : 29.63,
    "y_unit" : 29.63
  },
  "Volta" : {
    "type" : "ElMarkChessboardTarget",
    "unit" : 12.73,
    "x_unit" : 12.73,
    "y_unit" : 12.73
  },
  "Chessboard-26.25" : {
    "type" : "ElMarkChessboardTarget",
    "unit" : 25.55,
    "x_unit" : 25.55,
    "y_unit" : 25.55
  },
  "Archimedes" : {
    "type" : "ElMarkCornersTarget",
    "width" : 26,
    "height" : 19,
    "unit" : 29.63,
    "x_unit" : 29.63,
    "y_unit" : 29.63
  },
  "Galileo" : {
    "type" : "ElMarkCornersTarget",
    "width" : 23,
    "height" : 17,
    "unit" : 16.5,
    "x_unit" : 16.5,
    "y_unit" : 16.5
  },
  "Newton" : {
    "type" : "ElMarkCornersTarget",
    "width" : 21,
    "height" : 16,
    "unit" : 35.29,
    "x_unit" : 35.29,
    "y_unit" : 35.29
  },
  "Edison" : {
    "type" : "ElMarkCornersTarget",
    "width" : 30,
    "height" : 22,
    "unit" : 9.13,
    "x_unit" : 9.13,
    "y_unit" : 9.13
  }
}
